Aptitud_Darwiniana
…
Selección estabilizadora

La selección estabilizadora es que hay ventaja evolutiva para los individuos que estén en el centro y no los valores más pequeños y más grande.

d<-seq(from=0, to=30, by=0.1)
y<-500-0.5*(d-10)^2

variación <- rnorm(length(d), mean=10, sd=5)
var.y <- y + variación

df4=tibble(y, var.y, d)
df4

## # A tibble: 301 × 3
##        y var.y     d
##    <dbl> <dbl> <dbl>
##  1  450   465.   0  
##  2  451.  455.   0.1
##  3  452.  462.   0.2
##  4  453.  465.   0.3
##  5  454.  464.   0.4
##  6  455.  459.   0.5
##  7  456.  459.   0.6
##  8  457.  463.   0.7
##  9  458.  456.   0.8
## 10  459.  471.   0.9
## # … with 291 more rows
…
Selección disruptiva.

La selección disruptiva es que son los individuos más pequeños y más grande que tienen ventaja y no los del centro de la distribución.

d<-seq(from=0, to=30, by=0.1)
y<-500+0.5*(d-10)^2

variación <- rnorm(length(d), mean=10, sd=10)
var.y <- y + variación

df4=tibble(y, var.y, d)
df4

## # A tibble: 301 × 3
##        y var.y     d
##    <dbl> <dbl> <dbl>
##  1  550   584.   0  
##  2  549.  545.   0.1
##  3  548.  552.   0.2
##  4  547.  553.   0.3
##  5  546.  554.   0.4
##  6  545.  557.   0.5
##  7  544.  583.   0.6
##  8  543.  543.   0.7
##  9  542.  532.   0.8
## 10  541.  538.   0.9
## # … with 291 more rows
…
