Documento_RMarkdown
…
## # A tibble: 2 × 4
##    Edad Genero Pueblo_nacido Nueva_variable
##   <dbl> <chr>  <chr>                  <dbl>
## 1    23 F      Caguas                     1
## 2   190 M      San Juan                   2

Añadir un gráfico

x=as_tibble(rnorm(1000, 0,1)) # Creamos un conjunto de datos
x

## # A tibble: 1,000 × 1
##      value
##      <dbl>
##  1 -0.0407
##  2 -0.0646
##  3 -0.573 
##  4 -1.04  
##  5  0.379 
##  6  0.430 
##  7  0.883 
##  8  0.829 
##  9 -0.268 
## 10  0.998 
## # … with 990 more rows
…
x=as_tibble(rnorm(1000, 0,1)) # Creamos un conjunto de datos
x

## # A tibble: 1,000 × 1
##     value
##     <dbl>
##  1  0.626
##  2  0.122
##  3 -1.25 
##  4 -0.510
##  5  0.997
##  6 -0.205
##  7 -0.457
##  8 -1.56 
##  9  0.956
## 10 -0.949
## # … with 990 more rows
…
