Documento_RMarkdown
…
## # A tibble: 2 × 4
##    Edad Genero Pueblo_nacido Nueva_variable
##   <dbl> <chr>  <chr>                  <dbl>
## 1    23 F      Caguas                     1
## 2   190 M      San Juan                   2

Añadir una gráfica

x=as_tibble(rnorm(1000, 0,1)) # Creamos un conjunto de datos
x

## # A tibble: 1,000 × 1
##     value
##     <dbl>
##  1 -0.167
##  2  0.502
##  3  0.952
##  4 -0.629
##  5  0.552
##  6  1.04 
##  7  0.924
##  8 -1.08 
##  9 -0.512
## 10 -1.78 
## # … with 990 more rows
…
x=as_tibble(rnorm(1000, 0,1)) # Creamos un conjunto de datos
x

## # A tibble: 1,000 × 1
##     value
##     <dbl>
##  1  0.208
##  2  0.876
##  3 -2.05 
##  4  0.259
##  5  0.876
##  6  0.972
##  7 -0.621
##  8  1.87 
##  9 -1.62 
## 10  0.412
## # … with 990 more rows
…
